<!DOCTYPE html>
<!-- saved from url=(0068)file:///C:/Users/PRATEEK%20KUMAR%20UADHYA/Downloads/Task4%20(1).html -->
<html><head><meta http-equiv="Content-Type" content="text/html; charset=windows-1252">
<title>Image Anchor</title>
</head>

<body>
<img src="file:///C:/Users/GOKUJK/OneDrive%20-%20Capgemini/Desktop/boy.png" alt="boy" usemap="#hmap">
<map name="hmap">
<area shape="circle" coords="249,167,70" href="https://simple.wikipedia.org/wiki/Circle" target="_new">
<area shape="rect" coords="155,244,321,328" href="https://simple.wikipedia.org/wiki/Rectangle" target="_new">
<area shape="poly" coords="178,462,199,445,210,441,242,434,315,432,335,446,351,461,321,468,208,470,181,466" href="https://www.thefreedictionary.com/polygonal" target="_new">
</map>

</body></html>